{
	"wsport": 8081,
	"irc_server": "irc.ronsor.net",
	"irc_nickname": "s-HearingAid",
	"irc_channel_mheard": "#mheard",
	"irc_channel_support": "#hearingaid",
	"irc": {
		"userName": "mheard",
		"realName": "MHeard Web Interface",
		"port": 6667,
		"secure": false,
		"selfSigned": true,
		"localAddress": null
	}
}
